module uplatforma

require (
	cloud.google.com/go v0.34.0 // indirect
	github.com/denisenkom/go-mssqldb v0.0.0-20181014144952-4e0d7dc8888f // indirect
	github.com/erikstmartin/go-testdb v0.0.0-20160219214506-8d10e4a1bae5 // indirect
	github.com/gin-contrib/sse v0.0.0-20170109093832-22d885f9ecc7 // indirect
	github.com/gin-gonic/gin v1.3.0
	github.com/go-sql-driver/mysql v1.4.1 // indirect
	github.com/gofrs/uuid v3.1.0+incompatible // indirect
	github.com/google/go-cmp v0.2.0 // indirect
	github.com/jinzhu/gorm v1.9.2
	github.com/jinzhu/inflection v0.0.0-20180308033659-04140366298a // indirect
	github.com/jinzhu/now v0.0.0-20181116074157-8ec929ed50c3 // indirect
	github.com/json-iterator/go v1.1.5 // indirect
	github.com/lib/pq v1.0.0 // indirect
	github.com/mattn/go-isatty v0.0.4 // indirect
	github.com/mattn/go-sqlite3 v1.10.0 // indirect
	github.com/modern-go/concurrent v0.0.0-20180306012644-bacd9c7ef1dd // indirect
	github.com/modern-go/reflect2 v1.0.1 // indirect
	github.com/shopspring/decimal v0.0.0-20180709203117-cd690d0c9e24
	github.com/sirupsen/logrus v1.2.0
	github.com/ugorji/go/codec v0.0.0-20181209151446-772ced7fd4c2 // indirect
	golang.org/x/net v0.0.0-20181207154023-610586996380 // indirect
	golang.org/x/sync v0.0.0-20181108010431-42b317875d0f // indirect
	google.golang.org/appengine v1.3.0 // indirect
	gopkg.in/go-playground/assert.v1 v1.2.1 // indirect
	gopkg.in/go-playground/validator.v8 v8.18.2 // indirect
	gopkg.in/yaml.v2 v2.2.2 // indirect
)
